main/java/model/DataView.class
main/java/spark/SparkJob$1.class
main/java/model_serializer/DataViewSerializable.class
main/java/Main.class
main/java/kafka/IKafkaConstants.class
main/java/model/DataView1.class
main/java/spark/SparkJob.class
main/java/model/DataSuccess.class
main/java/model_serializer/DataViewSerializer.class
hbase/HbaseSink.class
main/java/kafka/SimpleProducer.class
main/java/model_serializer/DataSuccessSerializer.class
